…
## # A tibble: 27 x 4
##    bins      count return_mean_percent return_median_percent
##    <fct>     <int>               <dbl>                 <dbl>
##  1 [-10,10]     74               2.39                  18.0 
##  2 (350,370]     1             -16.3                  -16.3 
##  3 (410,430]     3             -37.6                  -63.4 
##  4 (430,450]    18             -28.7                  -45.9 
##  5 (450,470]    69              -8.32                   3.28
##  6 (470,490]   185              -3.80                  11.4 
##  7 (490,510]   351               0.993                 15.0 
##  8 (510,530]  1288              -6.08                   9.26
##  9 (530,550]  1160               2.65                  17.9 
## 10 (550,570]  1127               4.79                  24.2 
## # ... with 17 more rows
…
